@startuml kafka-overview-core
!include puml-skinparams.puml
skinparam nodesep 30

component "\nProducer\n " as producers #f0f090/909050
component "\nConsumer\n " as consumers #78f19c/47d16c

card "<$kafka*0.5>  Broker Cluster" as cluster #c3dafa/65a2f7 {
  node "Broker 1" as broker1 {
    queue "A" <<Topic>>  AS TopicA 
    queue "B" <<Topic>> AS TopicB 
    queue "..." <<Topic>> as topics1
  }
  node "Broker 2" as broker2 {
    queue "A" <<Topic>> AS TopicA2 {
      collections partitions
    }
    queue "B" <<Topic>> AS TopicB2 {
      collections partitions as partB
    }
    queue "..." <<Topic>>  AS Topics2
  }
}

card "Schema Registry" as schema #4be3ca/2bc7a3 {
  node "Schema Registry\nServer 1" as SR1
  node "Schema Registry\nServer n" as SRn
  SR1 -d[hidden]-> SRn
}
producers -r[hidden]-> consumers

producers -d-> TopicA
producers .d.> schema: get Schema
TopicB -u-> consumers
consumers .d.> schema: get Schema
TopicA <..> TopicA2 : replication
TopicB <..> TopicB2 : replication
topics1 <..> Topics2 : replication

@enduml