@startuml segments
!include puml-skinparams.puml

map partition1 {
  0 => M1
  1 => M4
  2 => M7
}
map partition2 {
  0 => M2
  1 => M5
  2 => M8
}
map partition3 {
  0 => M3
  1 => M6
  2 => 
}

component partitioner
queue topic

partitioner -d[#blue,thickness=3]-> partition3: write M9
partitioner .d.> partition1
partitioner .d.> partition2

topic -d[#blue,thickness=3]-> partitioner: M9


@enduml